Introduction to `broom.mixed` • broom.mixed
…
Capabilities

Automatically retrieve table of available methods:

get_methods()

## # A tibble: 22 × 4
##    class    tidy  glance augment
##    <chr>    <lgl> <lgl>  <lgl>  
##  1 allFit   TRUE  TRUE   FALSE  
##  2 brmsfit  TRUE  TRUE   TRUE   
##  3 gamlss   TRUE  TRUE   FALSE  
##  4 gamm4    TRUE  TRUE   TRUE   
##  5 glmmadmb TRUE  TRUE   TRUE   
##  6 glmmTMB  TRUE  TRUE   TRUE   
##  7 gls      TRUE  TRUE   TRUE   
##  8 lme      TRUE  TRUE   TRUE   
##  9 lmList4  TRUE  FALSE  FALSE  
## 10 mcmc     TRUE  FALSE  FALSE  
## # … with 12 more rows
…
